<?xml version="1.0" encoding="UTF-8" standalone="no"?>
<svg
   width="210mm"
   height="210mm"
   viewBox="0 0 210 210"
   version="1.1"
   id="svg8"
   inkscape:version="1.1.2 (0a00cf5339, 2022-02-04)"
   sodipodi:docname="tblockd.svg"
   xmlns:inkscape="http://www.inkscape.org/namespaces/inkscape"
   xmlns:sodipodi="http://sodipodi.sourceforge.net/DTD/sodipodi-0.dtd"
   xmlns:xlink="http://www.w3.org/1999/xlink"
   xmlns="http://www.w3.org/2000/svg"
   xmlns:svg="http://www.w3.org/2000/svg"
   xmlns:rdf="http://www.w3.org/1999/02/22-rdf-syntax-ns#"
   xmlns:cc="http://creativecommons.org/ns#"
   xmlns:dc="http://purl.org/dc/elements/1.1/">
  <title
     id="title844">TBlock Logo</title>
  <defs
     id="defs2">
    <linearGradient
       inkscape:collect="always"
       id="linearGradient3012">
      <stop
         style="stop-color:#ffffff;stop-opacity:1"
         offset="0"
         id="stop3008" />
      <stop
         style="stop-color:#ffffff;stop-opacity:0.99414998"
         offset="1"
         id="stop3010" />
    </linearGradient>
    <linearGradient
       inkscape:collect="always"
       id="linearGradient2959">
      <stop
         style="stop-color:#ff00ff;stop-opacity:1;"
         offset="0"
         id="stop2955" />
      <stop
         style="stop-color:#8000ff;stop-opacity:1"
         offset="1"
         id="stop2957" />
    </linearGradient>
    <linearGradient
       id="linearGradient983"
       inkscape:swatch="solid">
      <stop
         style="stop-color:#ffffff;stop-opacity:1;"
         offset="0"
         id="stop981" />
    </linearGradient>
    <linearGradient
       inkscape:collect="always"
       xlink:href="#linearGradient2959"
       id="linearGradient2961"
       x1="5.7078705"
       y1="105.70924"
       x2="204.272"
       y2="105.70924"
       gradientUnits="userSpaceOnUse"
       gradientTransform="translate(0,-0.36701802)" />
    <linearGradient
       inkscape:collect="always"
       xlink:href="#linearGradient3012"
       id="linearGradient3014"
       x1="52.141478"
       y1="111.50475"
       x2="157.75307"
       y2="111.50475"
       gradientUnits="userSpaceOnUse"
       gradientTransform="matrix(0.94034264,0,0,0.94034273,63.096139,178.15472)" />
    <linearGradient
       inkscape:collect="always"
       xlink:href="#linearGradient3012"
       id="linearGradient3190"
       x1="50.000813"
       y1="111.50475"
       x2="159.89374"
       y2="111.50475"
       gradientUnits="userSpaceOnUse"
       gradientTransform="matrix(0.94034264,0,0,0.94034273,63.096139,178.15472)" />
  </defs>
  <sodipodi:namedview
     id="base"
     pagecolor="#ffffff"
     bordercolor="#666666"
     borderopacity="1.0"
     inkscape:pageopacity="0.0"
     inkscape:pageshadow="2"
     inkscape:zoom="0.70710678"
     inkscape:cx="509.11688"
     inkscape:cy="404.46508"
     inkscape:document-units="mm"
     inkscape:current-layer="layer1"
     inkscape:document-rotation="0"
     showgrid="false"
     inkscape:window-width="1920"
     inkscape:window-height="1050"
     inkscape:window-x="0"
     inkscape:window-y="0"
     inkscape:window-maximized="1"
     inkscape:pagecheckerboard="0"
     inkscape:snap-grids="true"
     inkscape:snap-page="false" />
  <metadata
     id="metadata5">
    <rdf:RDF>
      <cc:Work
         rdf:about="">
        <dc:format>image/svg+xml</dc:format>
        <dc:type
           rdf:resource="http://purl.org/dc/dcmitype/StillImage" />
        <dc:title>TBlock Logo</dc:title>
        <dc:rights>
          <cc:Agent>
            <dc:title>Copyright (c) 2021-2022 Twann</dc:title>
          </cc:Agent>
        </dc:rights>
        <cc:license
           rdf:resource="http://creativecommons.org/licenses/by-sa/4.0/" />
        <dc:date>2/20/22</dc:date>
        <dc:creator>
          <cc:Agent>
            <dc:title>Twann</dc:title>
          </cc:Agent>
        </dc:creator>
        <dc:publisher>
          <cc:Agent>
            <dc:title>Twann</dc:title>
          </cc:Agent>
        </dc:publisher>
      </cc:Work>
      <cc:License
         rdf:about="http://creativecommons.org/licenses/by-sa/4.0/">
        <cc:permits
           rdf:resource="http://creativecommons.org/ns#Reproduction" />
        <cc:permits
           rdf:resource="http://creativecommons.org/ns#Distribution" />
        <cc:requires
           rdf:resource="http://creativecommons.org/ns#Notice" />
        <cc:requires
           rdf:resource="http://creativecommons.org/ns#Attribution" />
        <cc:permits
           rdf:resource="http://creativecommons.org/ns#DerivativeWorks" />
        <cc:requires
           rdf:resource="http://creativecommons.org/ns#ShareAlike" />
      </cc:License>
    </rdf:RDF>
  </metadata>
  <g
     inkscape:label="Layer 1"
     inkscape:groupmode="layer"
     id="layer1">
    <ellipse
       style="opacity:1;mix-blend-mode:normal;fill:url(#linearGradient2961);fill-opacity:1;fill-rule:evenodd;stroke-width:0.196;stroke-miterlimit:4;stroke-dasharray:none;paint-order:markers stroke fill"
       id="circle"
       cx="105"
       cy="105"
       rx="100"
       ry="100" />
    <text
       xml:space="preserve"
       style="font-style:normal;font-weight:normal;font-size:161.036px;line-height:1.25;font-family:sans-serif;fill:url(#linearGradient3190);fill-opacity:1;stroke:url(#linearGradient3014);stroke-width:4.02591"
       x="60.11"
       y="175"
       id="letter"><tspan
         x="60.880455"
         y="165.20979"
         style="fill:url(#linearGradient3190);fill-opacity:1;stroke:url(#linearGradient3014);stroke-width:4.02591"
         sodipodi:role="line"
         id="tspan2996">T</tspan></text>
  </g>
</svg>
